Chapter 7 Cleaning data | Audit Analytics with R
…
We can pivot this data by specifying the years, and then aggregating the amount. In this case, we want to take the columns and assign them to rows, and making the data longer. pivot_longer() will allow us to make this transformation:

clean_vendors %>%
  pivot_longer(cols = c(`2015`, `2016`, `2017`, `2018`), # The columns we want to pivot, in this case, the years. 
               names_to = 'year', # We want this collected column to be called the year
               values_to = 'amount') # the values of the aggregation

## # A tibble: 24 x 8
##       id type  name             company_contact  date_added summary year  amount
##    <int> <chr> <chr>            <chr>            <date>     <chr>   <chr>  <dbl>
##  1  2737 V     "Ware Company L… Gonzales, Andrea 2015-09-29 spend   2015  5.94e4
##  2  2737 V     "Ware Company L… Gonzales, Andrea 2015-09-29 spend   2016  6.74e4
##  3  2737 V     "Ware Company L… Gonzales, Andrea 2015-09-29 spend   2017  1.04e5
##  4  2737 V     "Ware Company L… Gonzales, Andrea 2015-09-29 spend   2018  4.65e4
##  5  2323 V     "el-Nasser Comp… Throm, Cameron   2015-09-07 spend   2015  8.43e4
##  6  2323 V     "el-Nasser Comp… Throm, Cameron   2015-09-07 spend   2016  1.43e5
##  7  2323 V     "el-Nasser Comp… Throm, Cameron   2015-09-07 spend   2017  1.87e5
##  8  2323 V     "el-Nasser Comp… Throm, Cameron   2015-09-07 spend   2018  1.53e5
##  9  2843 V     "Buckman Compan… Bryan, Nathanael 2015-09-27 spend   2015  8.46e4
## 10  2843 V     "Buckman Compan… Bryan, Nathanael 2015-09-27 spend   2016  1.17e5
## # … with 14 more rows
…
