Chapter 13 Continuous monitoring | Audit Analytics with R
…
13.4 Uploading additional results

As we intend for this to be a continiously monitored control, we should make sure we can upload additional rows, simulating new results over time. First, lets get some of these new records:

upload_rows <- all_hits %>%
  slice(2:3)

upload_rows

## # A tibble: 2 x 9
##   je_num amount gl_date    vendor_id account invoice_date description paid_date 
##    <int>  <dbl> <date>         <int> <chr>   <date>       <chr>       <date>    
## 1    223 50128. 2019-01-12      2211 exp_ma… 2019-01-05   Packaging … 2019-02-11
## 2    379 54127. 2019-05-10      2211 exp_ma… 2019-05-03   Packaging … 2019-06-09
## # … with 1 more variable: t_over_te <lgl>

Uploading new records is quite straight forward. Simply remove the purge argument (by default, post_results_records() will not erase the contents of the existing table):

post_results_records(highbond_auth, table_id = table_id, upload = upload_rows)

## Uploading to High value journal entries

## Uploading 1 of 1 to https://apis.highbond.com/v1/orgs/28474/tables/562390/upload

13.5 Downloading records and responses

Once information has been uploaded, you can also retrieve the information locally for further analysis, using the `get_results_records():

cm_control <- get_results_records(highbond_auth, table_id = table_id)

## Retrieving High value journal entries

## Date in ISO8601 format; converting timezone from UTC to "America/Edmonton".
## Date in ISO8601 format; converting timezone from UTC to "America/Edmonton".

This data is returned in a nested list, with technical information about the data downloaded and the table columns. You may poke around to see what was returned, or just get the Table records:

cm_control$content$data %>%
  select(je_num, amount, gl_date, vendor_id, account, invoice_date, description, paid_date, t_over_te)

##   je_num   amount    gl_date vendor_id            account invoice_date
## 1    102 50134.79 2019-01-12      2726 exp_materials_6000   2019-01-05
##             description  paid_date t_over_te
## 1 Medical grade filters 2019-01-15      TRUE
##  [ reached 'max' / getOption("max.print") -- omitted 2 rows ]
…
