Chapter 6 Data Completeness | Audit Analytics with R
…
## [1] NA

Its not that this value never existed. The letter ‘a’ did exist in the original format, but it doesn’t have a numerical representation within R. As it did not have a valid value when converted to a numeric type, it shows as NA.

In our data set, the vendor_id has NA values. We can inspect these by isolating them to determine the nature of the pattern:

# Base R equivalent: 
#  gl[is.na(gl$vendor_id), ]

# Tidyverse / dplyr
gl %>%
  filter(is.na(vendor_id))

## # A tibble: 1,000 x 9
##    je_num  amount gl_date gl_date_char vendor_id account invoice_date
##     <int>   <dbl>   <dbl> <chr>            <int> <chr>          <dbl>
##  1      1 -22667.   18232 2019-12-02          NA liab_a…        18225
##  2      2  -1397.   18228 2019-11-28          NA liab_a…        18218
##  3      3  -2319.   17995 2019-04-09          NA liab_a…        17985
##  4      4 -20037.   18199 2019-10-30          NA liab_a…        18189
##  5      5 -43140.   18051 2019-06-04          NA liab_a…        18041
##  6      6 -13603.   17927 2019-01-31          NA liab_a…        17920
##  7      7  -7001.   18190 2019-10-21          NA liab_a…        18183
##  8      8 -24753.   18010 2019-04-24          NA liab_a…        18003
##  9      9  -2295.   18087 2019-07-10          NA liab_a…        18080
## 10     10 -34263.   18060 2019-06-13          NA liab_a…        18053
## # … with 990 more rows, and 2 more variables: description <chr>,
## #   paid_date <dbl>
…
and the dollar value itself for each month.

When we deconstruct our data, it becomes much easier to delve into the tidyr package and the functions pivot_longer() and pivot_wider(). We will discuss the details of pivoting in cleaning data.

head(tb) %>%
  DT::datatable(options = list(scrollX = TRUE)) # Notice how this data looks wide

tb_long <- tb %>%
  pivot_longer(cols = starts_with("activity_"), # We want to aggregate the values in these columns
               names_to = "period", # What we want to call this new column
               values_to = "activity") # And the values we want to take from it

tb_long

## # A tibble: 60 x 3
##    account             period           activity
##    <chr>               <chr>               <dbl>
##  1 exp_consulting_6500 activity_2019_01   28785.
##  2 exp_consulting_6500 activity_2019_02    9942.
##  3 exp_consulting_6500 activity_2019_03    9715.
##  4 exp_consulting_6500 activity_2019_04    9931.
##  5 exp_consulting_6500 activity_2019_05   28973.
##  6 exp_consulting_6500 activity_2019_06   37677.
##  7 exp_consulting_6500 activity_2019_07   19295.
##  8 exp_consulting_6500 activity_2019_08    9104.
##  9 exp_consulting_6500 activity_2019_09   28698.
## 10 exp_consulting_6500 activity_2019_10   28753.
## # … with 50 more rows
…
