Chapter 8 Exploring data | Audit Analytics with R
…
8.2 Summarizations

While calculating one-off summary statistics is useful, you may want to perform summation or summary statistics, whether by an entity (a vendor) or by time frame (month, year). R provides methods for summarizing this information, with a combination of two verbs.

group_by() enables you to indicate the levels you want to aggregate (for example, by vendor or by month),

summarize() requires you to create new columns to contain the calculation or aggregation you want to occur (for example, sum or mean).

The materials table has a vendor_id number. We can try to perform a group_by()…

materials %>%
  group_by(vendor_id)

## # A tibble: 952 x 8
## # Groups:   vendor_id [3]
##    je_num amount gl_date    vendor_id account invoice_date description paid_date
##     <int>  <dbl> <date>         <int> <chr>          <dbl> <chr>           <dbl>
##  1      1 22667. 2019-12-02      2211 exp_ma…        18225 Packaging …     18262
##  2      2  1397. 2019-11-28      2612 exp_ma…        18218 Paper           18251
##  3      3  2319. 2019-04-09      2612 exp_ma…        17985 Paper           18018
##  4      4 20037. 2019-10-30      2612 exp_ma…        18189 Paper           18222
##  5      5 43140. 2019-06-04      2612 exp_ma…        18041 Blue dye        18074
##  6      6 13603. 2019-01-31      2726 exp_ma…        17920 Medical gr…     17930
##  7      7  7001. 2019-10-21      2726 exp_ma…        18183 Quality co…     18193
##  8      8 24753. 2019-04-24      2211 exp_ma…        18003 Packaging …     18040
##  9      9  2295. 2019-07-10      2726 exp_ma…        18080 Quality co…     18090
## 10     10 34263. 2019-06-13      2211 exp_ma…        18053 Packaging …     18090
## # … with 942 more rows
…
Summarize will isolate the data set first by the groups specified, and then perform the calculation and put the results into a new field. This works for all summary statistics as well. For example, if you want to find the number of transactions, and the highest and lowest amount charged per description:

materials %>%
  group_by(description) %>%
  summarize(number_of_trans = n(),
            lowest_amount = min(amount),
            highest_amount = max(amount))

## # A tibble: 11 x 4
##    description                      number_of_trans lowest_amount highest_amount
##  * <chr>                                      <int>         <dbl>          <dbl>
##  1 Blue dye                                      40         1071.         43140.
##  2 Fabric cutting machines                       34          432.         44950.
##  3 Face mask elastics                            37          526.         42785.
##  4 Fancy cloth prints                            46          294.         37269.
##  5 Meals for launch celebration                   1         1630.          1630.
##  6 Medical grade filters                        156          258.         57567.
##  7 Packaging and boxes                          316          304.         96355.
##  8 Paper                                        134          284.         47748.
##  9 Partial refund for medical grad…               1       -18873.        -18873.
## 10 Quality control testing supplies             169          273.         88524.
## 11 Sewing machines                               18          268.         36332.

8.3 Data Visualization - Why

With such useful statistical and summary functions, you may wonder why you ever need to delve into graphics. While summary statistics are fun (and perhaps, highly accurate and even ‘authoritative’), they don’t help bring to light full patterns of your data. The power of visual deduction can not be understated, especially in situations where superficially summary statistics have no issues.

Consider this data set, which are merely 4 pairs of x-y values (i.e. x1 goes with y1 etc):

anscombe

##   x1 x2 x3 x4   y1   y2   y3   y4
## 1 10 10 10  8 8.04 9.14 7.46 6.58
##  [ reached 'max' / getOption("max.print") -- omitted 10 rows ]
…
