Chapter 5 Import data | Audit Analytics with R
…
While knowing SQL is advantageous (and eventually critical), sometimes switching between languages is a hassle, especially when performing basic tasks within a database. Using the dplyr package, you can generate several of the same SQL queries using R syntax. All you need to do is create a reference to the table in the connection object - in this case, the con connection object contains the gl table:

db_gl <- tbl(con, 'gl')

db_gl

## # Source:   table<gl> [?? x 9]
## # Database: sqlite 3.30.1
## #   [/Users/jon/Documents/R/auditanalytics/data/rauditanalytics.sqlite]
##    je_num  amount gl_date gl_date_char vendor_id account invoice_date
##     <int>   <dbl>   <dbl> <chr>            <int> <chr>          <dbl>
##  1      1  22667.   18232 2019-12-02        2211 exp_ma…        18225
##  2      1 -22667.   18232 2019-12-02          NA liab_a…        18225
##  3      2   1397.   18228 2019-11-28        2612 exp_ma…        18218
##  4      2  -1397.   18228 2019-11-28          NA liab_a…        18218
##  5      3   2319.   17995 2019-04-09        2612 exp_ma…        17985
##  6      3  -2319.   17995 2019-04-09          NA liab_a…        17985
##  7      4  20037.   18199 2019-10-30        2612 exp_ma…        18189
##  8      4 -20037.   18199 2019-10-30          NA liab_a…        18189
##  9      5  43140.   18051 2019-06-04        2612 exp_ma…        18041
## 10      5 -43140.   18051 2019-06-04          NA liab_a…        18041
## # … with more rows, and 2 more variables: description <chr>, paid_date <dbl>

Not only is it pointing to the same table, but its also performing the same query, even though it was made up using R and dplyr:

db_gl %>% 
  show_query()

## <SQL>
## SELECT *
## FROM `gl`

There are a few differences though between using these approaches.

dbGetQuery() will return a data.frame that is immediately usable, while creating the table connection via tbl() results in a preview of the query but hasn’t been formally downloaded in the database. In order to use the data within R with tbl(), a further collect() is needed. Instead of performing a data download every time, it is advantageous to preview the results first before collecting it.

dbGetQuery requires the entire SQL query to be pre-written, and can not be further leveraged within the database. However, the tbl object can still be further manipulated. This is especially useful when creating new fields or performing joins in same database.

Lets say that you wanted to filter amounts greater than $75,000 in the database. In the SQL method, you would need to type a whole new SQL query:

dbGetQuery(con, 'select * from gl where amount > 75000')

##   je_num   amount gl_date gl_date_char vendor_id            account
## 1    140 96354.61   18249   2019-12-19      2211 exp_materials_6000
##   invoice_date         description paid_date
## 1        18242 Packaging and boxes     18279
##  [ reached 'max' / getOption("max.print") -- omitted 1 rows ]
…
