Chapter 15 Machine Learning | Audit Analytics with R
…
We can see that each journal entry line is now repeated for each and every unique word. However, its a bit difficult to see what words were shared between each journal entry, so lets lay it out wide and aggregate it so each word is in its own column, aligned with the journal entry.

wide_words <- words %>%
  pivot_wider(id_cols = je_num, names_from = word, values_from = n)

wide_words

## # A tibble: 4 x 8
##   je_num computer replace  unit class training  user repair
##    <int>    <int>   <int> <int> <int>    <int> <int>  <int>
## 1      1        1      NA    NA    NA       NA    NA     NA
## 2      2        1       1     1    NA       NA    NA     NA
## 3      3        1      NA    NA     1        1     1     NA
## 4      4        1      NA    NA    NA       NA    NA      1

Excellent, lets join this back to our dataset and do the final cleanup to start making predictions.

trans_listing <- transactions %>%
  inner_join(wide_words, by = 'je_num') 

trans_listing

##   je_num  description is_fixed_asset computer replace unit class training user
## 1      1 New computer           TRUE        1      NA   NA    NA       NA   NA
##   repair
## 1     NA
##  [ reached 'max' / getOption("max.print") -- omitted 3 rows ]
…
