Chapter 9 Test | Audit Analytics with R
…
And to detect which lines are close to month end, simply calculate the difference between the end of month and the original date, keeping only dates very close to the end of the month:

gl %>%
  mutate(t_cutoff = (end_of_month - gl_date) <= 1) %>% # Find entries on or one day prior to month end
  filter(t_cutoff) %>%
  select(je_num, gl_date, t_cutoff, everything())

## # A tibble: 136 x 12
##    je_num gl_date    t_cutoff  amount vendor_id account invoice_date description
##     <int> <date>     <lgl>      <dbl>     <int> <chr>   <date>       <chr>      
##  1      4 2019-10-30 TRUE      20037.      2612 exp_ma… 2019-10-20   Paper      
##  2      4 2019-10-30 TRUE     -20037.        NA liab_a… 2019-10-20   Paper      
##  3      6 2019-01-31 TRUE      13603.      2726 exp_ma… 2019-01-24   Medical gr…
##  4      6 2019-01-31 TRUE     -13603.        NA liab_a… 2019-01-24   Medical gr…
##  5     11 2019-07-30 TRUE       3000.      2612 exp_ma… 2019-07-20   Paper      
##  6     11 2019-07-30 TRUE      -3000.        NA liab_a… 2019-07-20   Paper      
##  7     31 2019-04-29 TRUE       9931.      2211 exp_co… 2019-04-14   Advisory s…
##  8     31 2019-04-29 TRUE      -9931.        NA liab_a… 2019-04-14   Advisory s…
##  9     44 2019-02-28 TRUE       3838.      2211 exp_ma… 2019-02-21   Packaging …
## 10     44 2019-02-28 TRUE      -3838.        NA liab_a… 2019-02-21   Packaging …
## # … with 126 more rows, and 4 more variables: paid_date <date>,
## #   day_of_week <ord>, t_weekend <lgl>, end_of_month <date>
…
At its core, an aging calculation is the comparison of one date to another certain date, and then aggregating the total amount by buckets indicating a range of days. However, it gets complicated rather quick because of how different systems implement aging:

Which dates are being compared - invoice dates, entry dates, paid dates and/or due dates?

Speaking of due dates, are you able to calculate a due date on a per-vendor (or even, per invoice) basis?

Are you able to run a report ‘as-of’? The as-of date is intended to help understand the outstanding balances at a specific point of time. Some accounting systems have insufficient information captured, meaning a backdated entered invoice (perhaps to a prior period) may affect the accuracy of a previous report.

We will initially filter our data and only keep valid invoices, by filtering on records that are related to materials:

gl %>%
  filter(account == 'exp_materials_6000') %>% # In scope invoices for aging
  select(je_num, vendor_id, gl_date, invoice_date, paid_date)

## # A tibble: 952 x 5
##    je_num vendor_id gl_date    invoice_date paid_date 
##     <int>     <int> <date>     <date>       <date>    
##  1      1      2211 2019-12-02 2019-11-25   2020-01-01
##  2      2      2612 2019-11-28 2019-11-18   2019-12-21
##  3      3      2612 2019-04-09 2019-03-30   2019-05-02
##  4      4      2612 2019-10-30 2019-10-20   2019-11-22
##  5      5      2612 2019-06-04 2019-05-25   2019-06-27
##  6      6      2726 2019-01-31 2019-01-24   2019-02-03
##  7      7      2726 2019-10-21 2019-10-14   2019-10-24
##  8      8      2211 2019-04-24 2019-04-17   2019-05-24
##  9      9      2726 2019-07-10 2019-07-03   2019-07-13
## 10     10      2211 2019-06-13 2019-06-06   2019-07-13
## # … with 942 more rows
…
An invoice was considered fully paid as of the paid_date, and

The definition of age in our system is based off the invoice_date and an user-chosen ‘as-of’ date.

We will use August 1, 2019 as our as-of date, and only include invoices that were recognized on or prior to then.

as_of_date <- as.Date('2019-08-01')

gl %>%
  filter(account == 'exp_materials_6000') %>% # In scope invoices for aging
  select(je_num, vendor_id, gl_date, invoice_date, paid_date) %>%
  filter(gl_date <= as_of_date) # Only choose recognized invoices as of a date

## # A tibble: 571 x 5
##    je_num vendor_id gl_date    invoice_date paid_date 
##     <int>     <int> <date>     <date>       <date>    
##  1      3      2612 2019-04-09 2019-03-30   2019-05-02
##  2      5      2612 2019-06-04 2019-05-25   2019-06-27
##  3      6      2726 2019-01-31 2019-01-24   2019-02-03
##  4      8      2211 2019-04-24 2019-04-17   2019-05-24
##  5      9      2726 2019-07-10 2019-07-03   2019-07-13
##  6     10      2211 2019-06-13 2019-06-06   2019-07-13
##  7     11      2612 2019-07-30 2019-07-20   2019-08-22
##  8     12      2726 2019-06-19 2019-06-12   2019-06-22
##  9     16      2211 2019-01-18 2019-01-11   2019-02-17
## 10     17      2612 2019-02-05 2019-01-26   2019-02-28
## # … with 561 more rows

We can also remove any paid invoices too, as they’re no longer aged as-of that date. Depending when you are running your report though, an invoice may either be paid or not paid yet.

gl %>%
  filter(account == 'exp_materials_6000') %>% # In scope invoices for aging
  select(je_num, vendor_id, gl_date, invoice_date, paid_date) %>%
  filter(gl_date <= as_of_date) %>% # Only choose recognized invoices as of a date
  filter(paid_date >= as_of_date | is.na(paid_date)) # Keep invoices that were not paid by the as-of date, or not paid at all yet

## # A tibble: 71 x 5
##    je_num vendor_id gl_date    invoice_date paid_date 
##     <int>     <int> <date>     <date>       <date>    
##  1     11      2612 2019-07-30 2019-07-20   2019-08-22
##  2     18      2612 2019-07-23 2019-07-13   2019-08-15
##  3     20      2211 2019-07-23 2019-07-16   2019-08-22
##  4     22      2612 2019-07-18 2019-07-08   2019-08-10
##  5     38      2211 2019-07-25 2019-07-18   2019-08-24
##  6     57      2211 2019-07-12 2019-07-05   2019-08-11
##  7     75      2211 2019-07-08 2019-07-01   2019-08-07
##  8     85      2612 2019-07-15 2019-07-05   2019-08-07
##  9     88      2612 2019-07-31 2019-07-21   2019-08-23
## 10     97      2612 2019-07-30 2019-07-20   2019-08-22
## # … with 61 more rows

Having isolated our invoices, we can now calculate the number of aged days:

gl %>%
  filter(account == 'exp_materials_6000') %>% # In scope invoices for aging
  filter(gl_date <= as_of_date) %>% # Only choose recognized invoices as of a date
  filter(paid_date >= as_of_date | is.na(paid_date)) %>% # Keep invoices that are not paid by the as-of date, or not paid at all yet
  mutate(aged_days = as.numeric(as_of_date - invoice_date)) %>%
  select(invoice_date, paid_date, aged_days)

## # A tibble: 71 x 3
##    invoice_date paid_date  aged_days
##    <date>       <date>         <dbl>
##  1 2019-07-20   2019-08-22        12
##  2 2019-07-13   2019-08-15        19
##  3 2019-07-16   2019-08-22        16
##  4 2019-07-08   2019-08-10        24
##  5 2019-07-18   2019-08-24        14
##  6 2019-07-05   2019-08-11        27
##  7 2019-07-01   2019-08-07        31
##  8 2019-07-05   2019-08-07        27
##  9 2019-07-21   2019-08-23        11
## 10 2019-07-20   2019-08-22        12
## # … with 61 more rows
…
aged_wip %>%
  mutate(aging_bucket = case_when(
    aged_days < 15 ~ "Current",
    aged_days < 30 ~ "15 - 30",
    aged_days < 90 ~ "30 - 59",
    TRUE ~ "60+"
  ))

## # A tibble: 71 x 2
##    aged_days aging_bucket
##        <dbl> <chr>       
##  1        12 Current     
##  2        19 15 - 30     
##  3        16 15 - 30     
##  4        24 15 - 30     
##  5        14 Current     
##  6        27 15 - 30     
##  7        31 30 - 59     
##  8        27 15 - 30     
##  9        11 Current     
## 10        12 Current     
## # … with 61 more rows

Another useful method is to use the cut() function, which will take the intervals you specify (aged days) and place each row into the category. The labels look a bit different - inclusive boundaries are ( while exclusive boundaries are ], but either of these can be used:

aged_wip %>%
  mutate(aging_bucket = cut(aged_wip$aged_days, breaks = c(0, 15, 30, 60, Inf)))

## # A tibble: 71 x 2
##    aged_days aging_bucket
##        <dbl> <fct>       
##  1        12 (0,15]      
##  2        19 (15,30]     
##  3        16 (15,30]     
##  4        24 (15,30]     
##  5        14 (0,15]      
##  6        27 (15,30]     
##  7        31 (30,60]     
##  8        27 (15,30]     
##  9        11 (0,15]      
## 10        12 (0,15]      
## # … with 61 more rows
…
print(aged)

## # A tibble: 71 x 3
##    vendor_id amount aging_bucket
##        <int>  <dbl> <chr>       
##  1      2612  3000. Current     
##  2      2612  8436. 15 - 30     
##  3      2211   725. 15 - 30     
##  4      2612  5037. 15 - 30     
##  5      2211  7412. Current     
##  6      2211 11461. 15 - 30     
##  7      2211  2206. 30 - 59     
##  8      2612  2491. 15 - 30     
##  9      2612   294. Current     
## 10      2612 13593. Current     
## # … with 61 more rows
…
